…
For this prompt, I use the functions built in prompt \#2 to fit
regression models to life expectancy data in the ‘gapminder’ dataframe.

``` r
#Nest gapminder data by country
gap_nest <- gapminder %>% nest(-country)

#Fit a linear regression to each country
(gap_fit <- gap_nest %>% 
    mutate(fit = map(gap_nest$data, linearFit))
)
```

    ## # A tibble: 142 x 3
    ##    country     data              fit              
    ##    <fct>       <list>            <list>           
    ##  1 Afghanistan <tibble [12 × 5]> <tibble [1 × 11]>
    ##  2 Albania     <tibble [12 × 5]> <tibble [1 × 11]>
    ##  3 Algeria     <tibble [12 × 5]> <tibble [1 × 11]>
    ##  4 Angola      <tibble [12 × 5]> <tibble [1 × 11]>
    ##  5 Argentina   <tibble [12 × 5]> <tibble [1 × 11]>
    ##  6 Australia   <tibble [12 × 5]> <tibble [1 × 11]>
    ##  7 Austria     <tibble [12 × 5]> <tibble [1 × 11]>
    ##  8 Bahrain     <tibble [12 × 5]> <tibble [1 × 11]>
    ##  9 Bangladesh  <tibble [12 × 5]> <tibble [1 × 11]>
    ## 10 Belgium     <tibble [12 × 5]> <tibble [1 × 11]>
    ## # ... with 132 more rows

``` r
#Get desired output (r.squared values for each country) in tibble form
(gap_Rsq <- gap_fit %>% 
    select(country, fit) %>% 
    unnest() %>% 
    select(country, r.squared)
)
```

    ## # A tibble: 142 x 2
    ##    country     r.squared
    ##    <fct>           <dbl>
    ##  1 Afghanistan     0.948
    ##  2 Albania         0.911
    ##  3 Algeria         0.985
    ##  4 Angola          0.888
    ##  5 Argentina       0.996
    ##  6 Australia       0.980
    ##  7 Austria         0.992
    ##  8 Bahrain         0.967
    ##  9 Bangladesh      0.989
    ## 10 Belgium         0.995
    ## # ... with 132 more rows
…
Next, let’s compare quadratic regression to see if the fit improves for
countries that had poor fits with linear regression.

``` r
#Repeat for quadratic regression
gap_fit_quad <- gap_nest %>% mutate(fit = map(gap_nest$data, quadFit))

(gap_Rsq_quad <- gap_fit_quad %>% 
    select(country, fit) %>% 
    unnest() %>% 
    select(country, r.squared))
```

    ## # A tibble: 142 x 2
    ##    country     r.squared
    ##    <fct>           <dbl>
    ##  1 Afghanistan     0.989
    ##  2 Albania         0.962
    ##  3 Algeria         0.992
    ##  4 Angola          0.979
    ##  5 Argentina       0.996
    ##  6 Australia       0.993
    ##  7 Austria         0.995
    ##  8 Bahrain         0.997
    ##  9 Bangladesh      0.997
    ## 10 Belgium         0.996
    ## # ... with 132 more rows
…
